1;1.11072063446044922e+00;1.10720634460449219e-01
2;1.02617204189300537e+00;2.61720418930053711e-02
3;1.01151502132415771e+00;1.15150213241577148e-02
4;1.00645458698272705e+00;6.45458698272705078e-03
5;1.00412428379058838e+00;4.12428379058837891e-03
6;1.00286161899566650e+00;2.86161899566650391e-03
7;1.00210130214691162e+00;2.10130214691162109e-03
8;1.00160813331604004e+00;1.60813331604003906e-03
9;1.00127041339874268e+00;1.27041339874267578e-03
10;1.00102877616882324e+00;1.02877616882324219e-03
12;1.00071406364440918e+00;7.14063644409179688e-04
14;1.00052464008331299e+00;5.24640083312988281e-04
16;1.00040173530578613e+00;4.01735305786132812e-04
18;1.00031721591949463e+00;3.17215919494628906e-04
20;1.00025725364685059e+00;2.57253646850585938e-04
23;1.00019407272338867e+00;1.94072723388671875e-04
26;1.00015187263488770e+00;1.51872634887695312e-04
29;1.00012218952178955e+00;1.22189521789550781e-04
32;1.00010085105895996e+00;1.00851058959960938e-04
36;1.00007927417755127e+00;7.92741775512695312e-05
40;1.00006461143493652e+00;6.46114349365234375e-05
45;1.00005090236663818e+00;5.09023666381835938e-05
50;1.00004172325134277e+00;4.17232513427734375e-05
56;1.00003302097320557e+00;3.30209732055664062e-05
62;1.00002801418304443e+00;2.80141830444335938e-05
69;1.00002062320709229e+00;2.06232070922851562e-05
76;1.00001847743988037e+00;1.84774398803710938e-05
84;1.00001418590545654e+00;1.41859054565429688e-05
93;1.00001323223114014e+00;1.32322311401367188e-05
103;1.00000810623168945e+00;8.10623168945312500e-06
114;1.00000905990600586e+00;9.05990600585937500e-06
126;1.00000798702239990e+00;7.98702239990234375e-06
139;1.00000441074371338e+00;4.41074371337890625e-06
153;1.00000584125518799e+00;5.84125518798828125e-06
169;1.00000262260437012e+00;2.62260437011718750e-06
186;1.00000572204589844e+00;5.72204589843750000e-06
205;9.99999225139617920e-01;7.74860382080078125e-07
226;1.00000274181365967e+00;2.74181365966796875e-06
249;1.00000262260437012e+00;2.62260437011718750e-06
274;1.00000381469726562e+00;3.81469726562500000e-06
302;1.00000095367431641e+00;9.53674316406250000e-07
333;1.00000417232513428e+00;4.17232513427734375e-06
367;9.99996900558471680e-01;3.09944152832031250e-06
404;1.00000238418579102e+00;2.38418579101562500e-06
445;1.00000000000000000e+00;0.00000000000000000e+00
490;1.00000286102294922e+00;2.86102294921875000e-06
539;1.00000357627868652e+00;3.57627868652343750e-06
593;9.99995887279510498e-01;4.11272048950195312e-06
653;1.00000488758087158e+00;4.88758087158203125e-06
719;9.99996006488800049e-01;3.99351119995117188e-06
791;1.00000190734863281e+00;1.90734863281250000e-06
871;1.00000059604644775e+00;5.96046447753906250e-07
959;9.99992787837982178e-01;7.21216201782226562e-06
1055;1.00000858306884766e+00;8.58306884765625000e-06
1161;9.99990105628967285e-01;9.89437103271484375e-06
1278;1.00001013278961182e+00;1.01327896118164062e-05
1406;1.00000810623168945e+00;8.10623168945312500e-06
1547;1.00000000000000000e+00;0.00000000000000000e+00
1702;1.00002074241638184e+00;2.07424163818359375e-05
1873;9.99984860420227051e-01;1.51395797729492188e-05
2061;1.00000810623168945e+00;8.10623168945312500e-06
2268;1.00002217292785645e+00;2.21729278564453125e-05
2495;9.99992489814758301e-01;7.51018524169921875e-06
2745;9.99993264675140381e-01;6.73532485961914062e-06
3020;9.99984443187713623e-01;1.55568122863769531e-05
3322;9.99971330165863037e-01;2.86698341369628906e-05
3655;9.99971747398376465e-01;2.82526016235351562e-05
4021;1.00006151199340820e+00;6.15119934082031250e-05
4424;1.00003719329833984e+00;3.71932983398437500e-05
4867;1.00000834465026855e+00;8.34465026855468750e-06
5354;9.99957263469696045e-01;4.27365303039550781e-05
5890;9.99961316585540771e-01;3.86834144592285156e-05
6480;1.00004017353057861e+00;4.01735305786132812e-05
7129;1.00000154972076416e+00;1.54972076416015625e-06
7842;9.99976873397827148e-01;2.31266021728515625e-05
8627;1.00002145767211914e+00;2.14576721191406250e-05
9490;1.00008511543273926e+00;8.51154327392578125e-05
10440;9.99924123287200928e-01;7.58767127990722656e-05
11485;9.99971747398376465e-01;2.82526016235351562e-05
12634;1.00016653537750244e+00;1.66535377502441406e-04
13898;9.99882102012634277e-01;1.17897987365722656e-04
15288;1.00014114379882812e+00;1.41143798828125000e-04
16817;9.99884665012359619e-01;1.15334987640380859e-04
18499;9.99952077865600586e-01;4.79221343994140625e-05
20349;9.99867439270019531e-01;1.32560729980468750e-04
22384;1.00000786781311035e+00;7.86781311035156250e-06
24623;9.99824702739715576e-01;1.75297260284423828e-04
27086;1.00023055076599121e+00;2.30550765991210938e-04
29795;9.99999761581420898e-01;2.38418579101562500e-07
32775;9.99570429325103760e-01;4.29570674896240234e-04
36053;1.00030648708343506e+00;3.06487083435058594e-04
39659;9.99777615070343018e-01;2.22384929656982422e-04
43625;9.99450385570526123e-01;5.49614429473876953e-04
47988;9.99809801578521729e-01;1.90198421478271484e-04
52787;9.99923050403594971e-01;7.69495964050292969e-05
58066;1.00063025951385498e+00;6.30259513854980469e-04
63873;9.99827027320861816e-01;1.72972679138183594e-04
70261;9.99521613121032715e-01;4.78386878967285156e-04
77288;1.00070631504058838e+00;7.06315040588378906e-04
85017;1.00129997730255127e+00;1.29997730255126953e-03
93519;1.00083339214324951e+00;8.33392143249511719e-04
