1;1.11072063446044922e+00;1.10720634460449219e-01
2;1.02617204189300537e+00;2.61720418930053711e-02
3;1.01151514053344727e+00;1.15151405334472656e-02
4;1.00645458698272705e+00;6.45458698272705078e-03
5;1.00412416458129883e+00;4.12416458129882812e-03
6;1.00286138057708740e+00;2.86138057708740234e-03
7;1.00210130214691162e+00;2.10130214691162109e-03
8;1.00160837173461914e+00;1.60837173461914062e-03
9;1.00127041339874268e+00;1.27041339874267578e-03
10;1.00102877616882324e+00;1.02877616882324219e-03
11;1.00085008144378662e+00;8.50081443786621094e-04
13;1.00060844421386719e+00;6.08444213867187500e-04
15;1.00045728683471680e+00;4.57286834716796875e-04
17;1.00035572052001953e+00;3.55720520019531250e-04
19;1.00028491020202637e+00;2.84910202026367188e-04
21;1.00023305416107178e+00;2.33054161071777344e-04
24;1.00017833709716797e+00;1.78337097167968750e-04
27;1.00014090538024902e+00;1.40905380249023438e-04
30;1.00011456012725830e+00;1.14560127258300781e-04
33;1.00009453296661377e+00;9.45329666137695312e-05
37;1.00007486343383789e+00;7.48634338378906250e-05
41;1.00006103515625000e+00;6.10351562500000000e-05
46;1.00004839897155762e+00;4.83989715576171875e-05
51;1.00003910064697266e+00;3.91006469726562500e-05
57;1.00003194808959961e+00;3.19480895996093750e-05
63;1.00002598762512207e+00;2.59876251220703125e-05
70;1.00002193450927734e+00;2.19345092773437500e-05
78;1.00001657009124756e+00;1.65700912475585938e-05
86;1.00001358985900879e+00;1.35898590087890625e-05
95;1.00001025199890137e+00;1.02519989013671875e-05
105;1.00000929832458496e+00;9.29832458496093750e-06
116;1.00000691413879395e+00;6.91413879394531250e-06
128;1.00000643730163574e+00;6.43730163574218750e-06
141;1.00000655651092529e+00;6.55651092529296875e-06
156;1.00000298023223877e+00;2.98023223876953125e-06
172;1.00000238418579102e+00;2.38418579101562500e-06
190;1.00000154972076416e+00;1.54972076416015625e-06
209;1.00000452995300293e+00;4.52995300292968750e-06
230;1.00000274181365967e+00;2.74181365966796875e-06
253;1.00000178813934326e+00;1.78813934326171875e-06
279;1.00000059604644775e+00;5.96046447753906250e-07
307;9.99999463558197021e-01;5.36441802978515625e-07
338;1.00000071525573730e+00;7.15255737304687500e-07
372;1.00000357627868652e+00;3.57627868652343750e-06
410;9.99997675418853760e-01;2.32458114624023438e-06
451;1.00000369548797607e+00;3.69548797607421875e-06
497;1.00000083446502686e+00;8.34465026855468750e-07
547;9.99997913837432861e-01;2.08616256713867188e-06
602;1.00000238418579102e+00;2.38418579101562500e-06
663;9.99994218349456787e-01;5.78165054321289062e-06
730;1.00000405311584473e+00;4.05311584472656250e-06
803;1.00000548362731934e+00;5.48362731933593750e-06
884;1.00000619888305664e+00;6.19888305664062500e-06
973;1.00000476837158203e+00;4.76837158203125000e-06
1071;9.99993443489074707e-01;6.55651092529296875e-06
1179;9.99999821186065674e-01;1.78813934326171875e-07
1297;1.00000679492950439e+00;6.79492950439453125e-06
1427;1.00001525878906250e+00;1.52587890625000000e-05
1570;1.00001263618469238e+00;1.26361846923828125e-05
1728;1.00001025199890137e+00;1.02519989013671875e-05
1901;9.99982237815856934e-01;1.77621841430664062e-05
2092;9.99997198581695557e-01;2.80141830444335938e-06
2302;9.99975144863128662e-01;2.48551368713378906e-05
2533;9.99970555305480957e-01;2.94446945190429688e-05
2787;1.00003361701965332e+00;3.36170196533203125e-05
3066;1.00000989437103271e+00;9.89437103271484375e-06
3373;9.99977409839630127e-01;2.25901603698730469e-05
3711;1.00002157688140869e+00;2.15768814086914062e-05
4083;9.99995112419128418e-01;4.88758087158203125e-06
4492;1.00000822544097900e+00;8.22544097900390625e-06
4942;9.99983489513397217e-01;1.65104866027832031e-05
5437;9.99963462352752686e-01;3.65376472473144531e-05
5981;9.99948918819427490e-01;5.10811805725097656e-05
6580;9.99957323074340820e-01;4.26769256591796875e-05
7238;9.99926626682281494e-01;7.33733177185058594e-05
7962;1.00010466575622559e+00;1.04665756225585938e-04
8759;1.00001990795135498e+00;1.99079513549804688e-05
9635;9.99968469142913818e-01;3.15308570861816406e-05
10599;9.99966979026794434e-01;3.30209732055664062e-05
11659;9.99947130680084229e-01;5.28693199157714844e-05
12825;1.00006687641143799e+00;6.68764114379882812e-05
14108;1.00022208690643311e+00;2.22086906433105469e-04
15519;9.99831438064575195e-01;1.68561935424804688e-04
17071;1.00013935565948486e+00;1.39355659484863281e-04
18779;1.00001573562622070e+00;1.57356262207031250e-05
20657;1.00015914440155029e+00;1.59144401550292969e-04
22723;1.00018179416656494e+00;1.81794166564941406e-04
24996;9.99847114086151123e-01;1.52885913848876953e-04
27496;9.99945580959320068e-01;5.44190406799316406e-05
30246;9.99988198280334473e-01;1.18017196655273438e-05
33271;9.99590158462524414e-01;4.09841537475585938e-04
36599;9.99501883983612061e-01;4.98116016387939453e-04
40259;9.99911904335021973e-01;8.80956649780273438e-05
44285;9.99712824821472168e-01;2.87175178527832031e-04
48714;1.00045549869537354e+00;4.55498695373535156e-04
53586;1.00048816204071045e+00;4.88162040710449219e-04
58945;9.99613523483276367e-01;3.86476516723632812e-04
64840;9.99855220317840576e-01;1.44779682159423828e-04
71324;1.00039350986480713e+00;3.93509864807128906e-04
78457;1.00096511840820312e+00;9.65118408203125000e-04
86303;1.00012302398681641e+00;1.23023986816406250e-04
94934;1.00034677982330322e+00;3.46779823303222656e-04
