1;1.11072075366973877e+00;1.10720753669738770e-01
2;1.02617204189300537e+00;2.61720418930053711e-02
3;1.01151525974273682e+00;1.15152597427368164e-02
4;1.00645470619201660e+00;6.45470619201660156e-03
5;1.00412428379058838e+00;4.12428379058837891e-03
6;1.00286138057708740e+00;2.86138057708740234e-03
7;1.00210106372833252e+00;2.10106372833251953e-03
8;1.00160813331604004e+00;1.60813331604003906e-03
9;1.00127041339874268e+00;1.27041339874267578e-03
10;1.00102889537811279e+00;1.02889537811279297e-03
12;1.00071430206298828e+00;7.14302062988281250e-04
14;1.00052475929260254e+00;5.24759292602539062e-04
16;1.00040161609649658e+00;4.01616096496582031e-04
18;1.00031709671020508e+00;3.17096710205078125e-04
20;1.00025701522827148e+00;2.57015228271484375e-04
22;1.00021255016326904e+00;2.12550163269042969e-04
25;1.00016462802886963e+00;1.64628028869628906e-04
28;1.00013148784637451e+00;1.31487846374511719e-04
31;1.00010716915130615e+00;1.07169151306152344e-04
35;1.00008428096771240e+00;8.42809677124023438e-05
39;1.00006747245788574e+00;6.74724578857421875e-05
43;1.00005543231964111e+00;5.54323196411132812e-05
48;1.00004482269287109e+00;4.48226928710937500e-05
53;1.00003719329833984e+00;3.71932983398437500e-05
59;1.00002920627593994e+00;2.92062759399414062e-05
65;1.00002539157867432e+00;2.53915786743164062e-05
72;1.00001907348632812e+00;1.90734863281250000e-05
80;1.00001752376556396e+00;1.75237655639648438e-05
88;1.00001299381256104e+00;1.29938125610351562e-05
97;1.00001084804534912e+00;1.08480453491210938e-05
107;1.00000798702239990e+00;7.98702239990234375e-06
118;1.00000727176666260e+00;7.27176666259765625e-06
130;1.00000774860382080e+00;7.74860382080078125e-06
144;1.00000417232513428e+00;4.17232513427734375e-06
159;1.00000667572021484e+00;6.67572021484375000e-06
175;1.00000548362731934e+00;5.48362731933593750e-06
193;1.00000083446502686e+00;8.34465026855468750e-07
213;1.00000321865081787e+00;3.21865081787109375e-06
235;1.00000417232513428e+00;4.17232513427734375e-06
259;1.00000143051147461e+00;1.43051147460937500e-06
285;1.00000202655792236e+00;2.02655792236328125e-06
314;1.00000035762786865e+00;3.57627868652343750e-07
346;1.00000083446502686e+00;8.34465026855468750e-07
381;1.00000059604644775e+00;5.96046447753906250e-07
420;1.00000023841857910e+00;2.38418579101562500e-07
463;9.99999642372131348e-01;3.57627868652343750e-07
510;1.00000393390655518e+00;3.93390655517578125e-06
561;9.99993443489074707e-01;6.55651092529296875e-06
618;9.99999940395355225e-01;5.96046447753906250e-08
680;9.99998152256011963e-01;1.84774398803710938e-06
748;9.99989509582519531e-01;1.04904174804687500e-05
823;1.00000226497650146e+00;2.26497650146484375e-06
906;1.00001168251037598e+00;1.16825103759765625e-05
997;1.00000703334808350e+00;7.03334808349609375e-06
1097;9.99999344348907471e-01;6.55651092529296875e-07
1207;1.00001549720764160e+00;1.54972076416015625e-05
1328;9.99996066093444824e-01;3.93390655517578125e-06
1461;9.99980390071868896e-01;1.96099281311035156e-05
1608;9.99985337257385254e-01;1.46627426147460938e-05
1769;1.00000607967376709e+00;6.07967376708984375e-06
1946;9.99994516372680664e-01;5.48362731933593750e-06
2141;9.99980568885803223e-01;1.94311141967773438e-05
2356;1.00002086162567139e+00;2.08616256713867188e-05
2592;9.99997913837432861e-01;2.08616256713867188e-06
2852;9.99988138675689697e-01;1.18613243103027344e-05
3138;9.99974548816680908e-01;2.54511833190917969e-05
3452;9.99977588653564453e-01;2.24113464355468750e-05
3798;1.00001001358032227e+00;1.00135803222656250e-05
4178;1.00002729892730713e+00;2.72989273071289062e-05
4596;9.99931275844573975e-01;6.87241554260253906e-05
5056;9.99975979328155518e-01;2.40206718444824219e-05
5562;9.99942719936370850e-01;5.72800636291503906e-05
6119;1.00003087520599365e+00;3.08752059936523438e-05
6731;9.99984264373779297e-01;1.57356262207031250e-05
7405;1.00004315376281738e+00;4.31537628173828125e-05
8146;9.99964892864227295e-01;3.51071357727050781e-05
8961;1.00005841255187988e+00;5.84125518798828125e-05
9858;9.99996304512023926e-01;3.69548797607421875e-06
10844;9.99927401542663574e-01;7.25984573364257812e-05
11929;9.99974548816680908e-01;2.54511833190917969e-05
13122;9.99931156635284424e-01;6.88433647155761719e-05
14435;1.00008630752563477e+00;8.63075256347656250e-05
15879;1.00008082389831543e+00;8.08238983154296875e-05
17467;1.00002896785736084e+00;2.89678573608398438e-05
19214;1.00005006790161133e+00;5.00679016113281250e-05
21136;1.00011527538299561e+00;1.15275382995605469e-04
23250;1.00012874603271484e+00;1.28746032714843750e-04
25575;9.99950647354125977e-01;4.93526458740234375e-05
28133;1.00003504753112793e+00;3.50475311279296875e-05
30947;1.00008070468902588e+00;8.07046890258789062e-05
34042;9.99636530876159668e-01;3.63469123840332031e-04
37447;1.00028264522552490e+00;2.82645225524902344e-04
41192;1.00033855438232422e+00;3.38554382324218750e-04
45312;1.00018334388732910e+00;1.83343887329101562e-04
49844;1.00007867813110352e+00;7.86781311035156250e-05
54829;9.99963164329528809e-01;3.68356704711914062e-05
60312;1.00049555301666260e+00;4.95553016662597656e-04
66344;9.99866604804992676e-01;1.33395195007324219e-04
72979;9.99573886394500732e-01;4.26113605499267578e-04
80277;9.99395728111267090e-01;6.04271888732910156e-04
88305;9.99801158905029297e-01;1.98841094970703125e-04
97136;9.99940276145935059e-01;5.97238540649414062e-05
