1;1.11072063446044922e+00;1.10720634460449219e-01
2;1.02617204189300537e+00;2.61720418930053711e-02
3;1.01151525974273682e+00;1.15152597427368164e-02
4;1.00645446777343750e+00;6.45446777343750000e-03
5;1.00412404537200928e+00;4.12404537200927734e-03
6;1.00286149978637695e+00;2.86149978637695312e-03
7;1.00210130214691162e+00;2.10130214691162109e-03
8;1.00160801410675049e+00;1.60801410675048828e-03
9;1.00127041339874268e+00;1.27041339874267578e-03
10;1.00102853775024414e+00;1.02853775024414062e-03
11;1.00084996223449707e+00;8.49962234497070312e-04
13;1.00060820579528809e+00;6.08205795288085938e-04
15;1.00045704841613770e+00;4.57048416137695312e-04
17;1.00035560131072998e+00;3.55601310729980469e-04
19;1.00028491020202637e+00;2.84910202026367188e-04
21;1.00023329257965088e+00;2.33292579650878906e-04
24;1.00017845630645752e+00;1.78456306457519531e-04
27;1.00014138221740723e+00;1.41382217407226562e-04
30;1.00011432170867920e+00;1.14321708679199219e-04
33;1.00009477138519287e+00;9.47713851928710938e-05
37;1.00007498264312744e+00;7.49826431274414062e-05
41;1.00006091594696045e+00;6.09159469604492188e-05
46;1.00004816055297852e+00;4.81605529785156250e-05
51;1.00003910064697266e+00;3.91006469726562500e-05
57;1.00003230571746826e+00;3.23057174682617188e-05
63;1.00002670288085938e+00;2.67028808593750000e-05
70;1.00002157688140869e+00;2.15768814086914062e-05
77;1.00001716613769531e+00;1.71661376953125000e-05
85;1.00001358985900879e+00;1.35898590087890625e-05
94;1.00001180171966553e+00;1.18017196655273438e-05
104;1.00001013278961182e+00;1.01327896118164062e-05
115;1.00000798702239990e+00;7.98702239990234375e-06
127;1.00000572204589844e+00;5.72204589843750000e-06
140;1.00000643730163574e+00;6.43730163574218750e-06
154;1.00000393390655518e+00;3.93390655517578125e-06
170;1.00000286102294922e+00;2.86102294921875000e-06
188;1.00000381469726562e+00;3.81469726562500000e-06
207;9.99998569488525391e-01;1.43051147460937500e-06
228;1.00000429153442383e+00;4.29153442382812500e-06
251;1.00000095367431641e+00;9.53674316406250000e-07
277;1.00000107288360596e+00;1.07288360595703125e-06
305;1.00000047683715820e+00;4.76837158203125000e-07
336;1.00000035762786865e+00;3.57627868652343750e-07
370;1.00000548362731934e+00;5.48362731933593750e-06
407;1.00000250339508057e+00;2.50339508056640625e-06
448;1.00000476837158203e+00;4.76837158203125000e-06
493;1.00000166893005371e+00;1.66893005371093750e-06
543;9.99999284744262695e-01;7.15255737304687500e-07
598;1.00000107288360596e+00;1.07288360595703125e-06
658;9.99994993209838867e-01;5.00679016113281250e-06
724;1.00001215934753418e+00;1.21593475341796875e-05
797;1.00001215934753418e+00;1.21593475341796875e-05
877;1.00000762939453125e+00;7.62939453125000000e-06
965;1.00000190734863281e+00;1.90734863281250000e-06
1062;9.99990999698638916e-01;9.00030136108398438e-06
1169;1.00000774860382080e+00;7.74860382080078125e-06
1286;1.00000286102294922e+00;2.86102294921875000e-06
1415;1.00000011920928955e+00;1.19209289550781250e-07
1557;1.00001597404479980e+00;1.59740447998046875e-05
1713;9.99996483325958252e-01;3.51667404174804688e-06
1885;9.99999523162841797e-01;4.76837158203125000e-07
2074;9.99997913837432861e-01;2.08616256713867188e-06
2282;9.99995648860931396e-01;4.35113906860351562e-06
2511;9.99994337558746338e-01;5.66244125366210938e-06
2763;9.99959349632263184e-01;4.06503677368164062e-05
3040;1.00002253055572510e+00;2.25305557250976562e-05
3345;9.99980211257934570e-01;1.97887420654296875e-05
3680;9.99994933605194092e-01;5.06639480590820312e-06
4048;9.99968290328979492e-01;3.17096710205078125e-05
4453;9.99959290027618408e-01;4.07099723815917969e-05
4899;1.00001227855682373e+00;1.22785568237304688e-05
5389;9.99954879283905029e-01;4.51207160949707031e-05
5928;1.00002408027648926e+00;2.40802764892578125e-05
6521;1.00000464916229248e+00;4.64916229248046875e-06
7174;1.00004148483276367e+00;4.14848327636718750e-05
7892;9.99990284442901611e-01;9.71555709838867188e-06
8682;1.00003767013549805e+00;3.76701354980468750e-05
9551;9.99988138675689697e-01;1.18613243103027344e-05
10507;9.99897837638854980e-01;1.02162361145019531e-04
11558;9.99871194362640381e-01;1.28805637359619141e-04
12714;1.00003528594970703e+00;3.52859497070312500e-05
13986;9.99896168708801270e-01;1.03831291198730469e-04
15385;1.00011718273162842e+00;1.17182731628417969e-04
16924;9.99933063983917236e-01;6.69360160827636719e-05
18617;1.00004613399505615e+00;4.61339950561523438e-05
20479;1.00010216236114502e+00;1.02162361145019531e-04
22527;1.00025153160095215e+00;2.51531600952148438e-04
24780;1.00000131130218506e+00;1.31130218505859375e-06
27258;1.00010108947753906e+00;1.01089477539062500e-04
29984;1.00022268295288086e+00;2.22682952880859375e-04
32983;9.99675810337066650e-01;3.24189662933349609e-04
36282;9.99831855297088623e-01;1.68144702911376953e-04
39911;9.99740540981292725e-01;2.59459018707275391e-04
43903;9.99645709991455078e-01;3.54290008544921875e-04
48294;1.00032556056976318e+00;3.25560569763183594e-04
53124;9.99307096004486084e-01;6.92903995513916016e-04
58437;1.00051844120025635e+00;5.18441200256347656e-04
64281;1.00096428394317627e+00;9.64283943176269531e-04
70710;1.00005996227264404e+00;5.99622726440429688e-05
77781;1.00028550624847412e+00;2.85506248474121094e-04
85560;9.98693585395812988e-01;1.30641460418701172e-03
94116;9.98546719551086426e-01;1.45328044891357422e-03
