1;1.11072063446044922e+00;1.10720634460449219e-01
2;1.02617216110229492e+00;2.61721611022949219e-02
3;1.01151514053344727e+00;1.15151405334472656e-02
4;1.00645446777343750e+00;6.45446777343750000e-03
5;1.00412440299987793e+00;4.12440299987792969e-03
6;1.00286161899566650e+00;2.86161899566650391e-03
7;1.00210106372833252e+00;2.10106372833251953e-03
8;1.00160813331604004e+00;1.60813331604003906e-03
9;1.00127029418945312e+00;1.27029418945312500e-03
10;1.00102901458740234e+00;1.02901458740234375e-03
12;1.00071442127227783e+00;7.14421272277832031e-04
14;1.00052487850189209e+00;5.24878501892089844e-04
16;1.00040149688720703e+00;4.01496887207031250e-04
18;1.00031721591949463e+00;3.17215919494628906e-04
20;1.00025725364685059e+00;2.57253646850585938e-04
22;1.00021243095397949e+00;2.12430953979492188e-04
25;1.00016450881958008e+00;1.64508819580078125e-04
28;1.00013148784637451e+00;1.31487846374511719e-04
31;1.00010764598846436e+00;1.07645988464355469e-04
35;1.00008416175842285e+00;8.41617584228515625e-05
39;1.00006771087646484e+00;6.77108764648437500e-05
43;1.00005483627319336e+00;5.48362731933593750e-05
48;1.00004446506500244e+00;4.44650650024414062e-05
53;1.00003695487976074e+00;3.69548797607421875e-05
59;1.00002896785736084e+00;2.89678573608398438e-05
65;1.00002503395080566e+00;2.50339508056640625e-05
72;1.00001883506774902e+00;1.88350677490234375e-05
80;1.00001680850982666e+00;1.68085098266601562e-05
88;1.00001335144042969e+00;1.33514404296875000e-05
97;1.00001108646392822e+00;1.10864639282226562e-05
107;1.00000929832458496e+00;9.29832458496093750e-06
118;1.00000715255737305e+00;7.15255737304687500e-06
130;1.00000751018524170e+00;7.51018524169921875e-06
143;1.00000524520874023e+00;5.24520874023437500e-06
158;1.00000524520874023e+00;5.24520874023437500e-06
174;1.00000417232513428e+00;4.17232513427734375e-06
192;1.00000131130218506e+00;1.31130218505859375e-06
212;1.00000250339508057e+00;2.50339508056640625e-06
234;1.00000000000000000e+00;0.00000000000000000e+00
258;1.00000274181365967e+00;2.74181365966796875e-06
284;9.99999523162841797e-01;4.76837158203125000e-07
313;1.00000178813934326e+00;1.78813934326171875e-06
345;9.99999821186065674e-01;1.78813934326171875e-07
380;1.00000214576721191e+00;2.14576721191406250e-06
418;1.00000214576721191e+00;2.14576721191406250e-06
460;9.99997794628143311e-01;2.20537185668945312e-06
507;1.00000238418579102e+00;2.38418579101562500e-06
558;1.00000095367431641e+00;9.53674316406250000e-07
614;9.99998629093170166e-01;1.37090682983398438e-06
676;9.99999344348907471e-01;6.55651092529296875e-07
744;1.00000429153442383e+00;4.29153442382812500e-06
819;1.00000607967376709e+00;6.07967376708984375e-06
901;9.99997079372406006e-01;2.92062759399414062e-06
992;9.99986767768859863e-01;1.32322311401367188e-05
1092;9.99998688697814941e-01;1.31130218505859375e-06
1202;1.00000143051147461e+00;1.43051147460937500e-06
1323;1.00000512599945068e+00;5.12599945068359375e-06
1456;1.00002229213714600e+00;2.22921371459960938e-05
1602;9.99993145465850830e-01;6.85453414916992188e-06
1763;9.99979138374328613e-01;2.08616256713867188e-05
1940;9.99988853931427002e-01;1.11460685729980469e-05
2134;1.00000345706939697e+00;3.45706939697265625e-06
2348;1.00002443790435791e+00;2.44379043579101562e-05
2583;1.00000643730163574e+00;6.43730163574218750e-06
2842;1.00001513957977295e+00;1.51395797729492188e-05
3127;1.00002288818359375e+00;2.28881835937500000e-05
3440;1.00002610683441162e+00;2.61068344116210938e-05
3785;9.99993443489074707e-01;6.55651092529296875e-06
4164;1.00002586841583252e+00;2.58684158325195312e-05
4581;1.00001239776611328e+00;1.23977661132812500e-05
5040;1.00002598762512207e+00;2.59876251220703125e-05
5544;1.00000476837158203e+00;4.76837158203125000e-06
6099;1.00005125999450684e+00;5.12599945068359375e-05
6709;9.99916851520538330e-01;8.31484794616699219e-05
7380;1.00005877017974854e+00;5.87701797485351562e-05
8119;1.00010144710540771e+00;1.01447105407714844e-04
8931;1.00003039836883545e+00;3.03983688354492188e-05
9825;9.99927997589111328e-01;7.20024108886718750e-05
10808;9.99941766262054443e-01;5.82337379455566406e-05
11889;9.99978363513946533e-01;2.16364860534667969e-05
13078;9.99921560287475586e-01;7.84397125244140625e-05
14386;1.00016868114471436e+00;1.68681144714355469e-04
15825;9.99994695186614990e-01;5.30481338500976562e-06
17408;1.00019741058349609e+00;1.97410583496093750e-04
19149;9.99857842922210693e-01;1.42157077789306641e-04
21064;9.99890744686126709e-01;1.09255313873291016e-04
23171;1.00002121925354004e+00;2.12192535400390625e-05
25489;1.00033926963806152e+00;3.39269638061523438e-04
28038;1.00036287307739258e+00;3.62873077392578125e-04
30842;9.99963164329528809e-01;3.68356704711914062e-05
33927;1.00006330013275146e+00;6.33001327514648438e-05
37320;9.99606788158416748e-01;3.93211841583251953e-04
41052;1.00058841705322266e+00;5.88417053222656250e-04
45158;1.00014305114746094e+00;1.43051147460937500e-04
49674;9.99763906002044678e-01;2.36093997955322266e-04
54642;9.99606847763061523e-01;3.93152236938476562e-04
60107;9.99877631664276123e-01;1.22368335723876953e-04
66118;9.99796807765960693e-01;2.03192234039306641e-04
72730;9.99641895294189453e-01;3.58104705810546875e-04
80003;1.00021183490753174e+00;2.11834907531738281e-04
88004;1.00040471553802490e+00;4.04715538024902344e-04
96805;9.99250650405883789e-01;7.49349594116210938e-04
