1;1.11072075366973877e+00;1.10720753669738770e-01
2;1.02617204189300537e+00;2.61720418930053711e-02
3;1.01151525974273682e+00;1.15152597427368164e-02
4;1.00645458698272705e+00;6.45458698272705078e-03
5;1.00412428379058838e+00;4.12428379058837891e-03
6;1.00286149978637695e+00;2.86149978637695312e-03
7;1.00210106372833252e+00;2.10106372833251953e-03
8;1.00160813331604004e+00;1.60813331604003906e-03
9;1.00127041339874268e+00;1.27041339874267578e-03
10;1.00102889537811279e+00;1.02889537811279297e-03
12;1.00071406364440918e+00;7.14063644409179688e-04
14;1.00052464008331299e+00;5.24640083312988281e-04
16;1.00040161609649658e+00;4.01616096496582031e-04
18;1.00031697750091553e+00;3.16977500915527344e-04
20;1.00025713443756104e+00;2.57134437561035156e-04
23;1.00019443035125732e+00;1.94430351257324219e-04
26;1.00015175342559814e+00;1.51753425598144531e-04
29;1.00012230873107910e+00;1.22308731079101562e-04
32;1.00010037422180176e+00;1.00374221801757812e-04
36;1.00007891654968262e+00;7.89165496826171875e-05
40;1.00006449222564697e+00;6.44922256469726562e-05
45;1.00005102157592773e+00;5.10215759277343750e-05
50;1.00004136562347412e+00;4.13656234741210938e-05
55;1.00003361701965332e+00;3.36170196533203125e-05
61;1.00002670288085938e+00;2.67028808593750000e-05
68;1.00002229213714600e+00;2.22921371459960938e-05
75;1.00001823902130127e+00;1.82390213012695312e-05
83;1.00001430511474609e+00;1.43051147460937500e-05
92;1.00001072883605957e+00;1.07288360595703125e-05
102;1.00000929832458496e+00;9.29832458496093750e-06
113;1.00000882148742676e+00;8.82148742675781250e-06
125;1.00000691413879395e+00;6.91413879394531250e-06
138;1.00000321865081787e+00;3.21865081787109375e-06
152;1.00000524520874023e+00;5.24520874023437500e-06
168;1.00000333786010742e+00;3.33786010742187500e-06
185;1.00000536441802979e+00;5.36441802978515625e-06
204;1.00000011920928955e+00;1.19209289550781250e-07
225;1.00000071525573730e+00;7.15255737304687500e-07
248;1.00000154972076416e+00;1.54972076416015625e-06
273;1.00000238418579102e+00;2.38418579101562500e-06
301;1.00000154972076416e+00;1.54972076416015625e-06
332;9.99999165534973145e-01;8.34465026855468750e-07
366;9.99998629093170166e-01;1.37090682983398438e-06
403;1.00000131130218506e+00;1.31130218505859375e-06
444;1.00000345706939697e+00;3.45706939697265625e-06
489;1.00000202655792236e+00;2.02655792236328125e-06
538;9.99998033046722412e-01;1.96695327758789062e-06
592;9.99994993209838867e-01;5.00679016113281250e-06
652;1.00000345706939697e+00;3.45706939697265625e-06
718;9.99994695186614990e-01;5.30481338500976562e-06
790;1.00000691413879395e+00;6.91413879394531250e-06
869;9.99994039535522461e-01;5.96046447753906250e-06
956;9.99994039535522461e-01;5.96046447753906250e-06
1052;1.00000858306884766e+00;8.58306884765625000e-06
1158;1.00001382827758789e+00;1.38282775878906250e-05
1274;1.00000846385955811e+00;8.46385955810546875e-06
1402;9.99992787837982178e-01;7.21216201782226562e-06
1543;1.00000882148742676e+00;8.82148742675781250e-06
1698;9.99993860721588135e-01;6.13927841186523438e-06
1868;1.00002300739288330e+00;2.30073928833007812e-05
2055;9.99977529048919678e-01;2.24709510803222656e-05
2261;1.00001859664916992e+00;1.85966491699218750e-05
2488;9.99980628490447998e-01;1.93715095520019531e-05
2737;9.99995052814483643e-01;4.94718551635742188e-06
3011;9.99991059303283691e-01;8.94069671630859375e-06
3313;9.99991893768310547e-01;8.10623168945312500e-06
3645;9.99948918819427490e-01;5.10811805725097656e-05
4010;1.00005948543548584e+00;5.94854354858398438e-05
4412;9.99979197978973389e-01;2.08020210266113281e-05
4854;9.99987244606018066e-01;1.27553939819335938e-05
5340;9.99973118305206299e-01;2.68816947937011719e-05
5875;1.00004577636718750e+00;4.57763671875000000e-05
6463;1.00002479553222656e+00;2.47955322265625000e-05
7110;9.99973952770233154e-01;2.60472297668457031e-05
7821;1.00002431869506836e+00;2.43186950683593750e-05
8604;1.00007164478302002e+00;7.16447830200195312e-05
9465;9.99944984912872314e-01;5.50150871276855469e-05
10412;9.99927461147308350e-01;7.25388526916503906e-05
11454;1.00004017353057861e+00;4.01735305786132812e-05
12600;1.00002157688140869e+00;2.15768814086914062e-05
13861;9.99976158142089844e-01;2.38418579101562500e-05
15248;9.99909579753875732e-01;9.04202461242675781e-05
16773;9.99939143657684326e-01;6.08563423156738281e-05
18451;9.99865770339965820e-01;1.34229660034179688e-04
20297;9.99924898147583008e-01;7.51018524169921875e-05
22327;9.99883890151977539e-01;1.16109848022460938e-04
24560;9.99782741069793701e-01;2.17258930206298828e-04
27017;1.00011587142944336e+00;1.15871429443359375e-04
29719;1.00003886222839355e+00;3.88622283935546875e-05
32691;9.99639987945556641e-01;3.60012054443359375e-04
35961;1.00016093254089355e+00;1.60932540893554688e-04
39558;9.99646902084350586e-01;3.53097915649414062e-04
43514;1.00021040439605713e+00;2.10404396057128906e-04
47866;9.99837160110473633e-01;1.62839889526367188e-04
52653;9.99711990356445312e-01;2.88009643554687500e-04
57919;9.99449789524078369e-01;5.50210475921630859e-04
63711;1.00029134750366211e+00;2.91347503662109375e-04
70083;9.98989045619964600e-01;1.01095438003540039e-03
77092;1.00082278251647949e+00;8.22782516479492188e-04
84802;1.00014376640319824e+00;1.43766403198242188e-04
93283;9.99472856521606445e-01;5.27143478393554688e-04
