1;1.11072063446044922e+00;1.10720634460449219e-01
2;1.02617204189300537e+00;2.61720418930053711e-02
3;1.01151502132415771e+00;1.15150213241577148e-02
4;1.00645446777343750e+00;6.45446777343750000e-03
5;1.00412428379058838e+00;4.12428379058837891e-03
6;1.00286161899566650e+00;2.86161899566650391e-03
7;1.00210142135620117e+00;2.10142135620117188e-03
8;1.00160825252532959e+00;1.60825252532958984e-03
9;1.00127029418945312e+00;1.27029418945312500e-03
10;1.00102889537811279e+00;1.02889537811279297e-03
11;1.00085031986236572e+00;8.50319862365722656e-04
13;1.00060856342315674e+00;6.08563423156738281e-04
15;1.00045716762542725e+00;4.57167625427246094e-04
17;1.00035572052001953e+00;3.55720520019531250e-04
19;1.00028479099273682e+00;2.84790992736816406e-04
21;1.00023293495178223e+00;2.32934951782226562e-04
24;1.00017809867858887e+00;1.78098678588867188e-04
27;1.00014114379882812e+00;1.41143798828125000e-04
30;1.00011432170867920e+00;1.14321708679199219e-04
33;1.00009453296661377e+00;9.45329666137695312e-05
37;1.00007486343383789e+00;7.48634338378906250e-05
41;1.00006127357482910e+00;6.12735748291015625e-05
46;1.00004804134368896e+00;4.80413436889648438e-05
51;1.00003933906555176e+00;3.93390655517578125e-05
57;1.00003135204315186e+00;3.13520431518554688e-05
63;1.00002646446228027e+00;2.64644622802734375e-05
70;1.00002217292785645e+00;2.21729278564453125e-05
77;1.00001740455627441e+00;1.74045562744140625e-05
85;1.00001335144042969e+00;1.33514404296875000e-05
94;1.00001227855682373e+00;1.22785568237304688e-05
104;1.00001120567321777e+00;1.12056732177734375e-05
115;1.00000846385955811e+00;8.46385955810546875e-06
127;1.00000643730163574e+00;6.43730163574218750e-06
140;1.00000667572021484e+00;6.67572021484375000e-06
154;1.00000393390655518e+00;3.93390655517578125e-06
170;1.00000274181365967e+00;2.74181365966796875e-06
188;1.00000345706939697e+00;3.45706939697265625e-06
207;9.99999523162841797e-01;4.76837158203125000e-07
228;1.00000476837158203e+00;4.76837158203125000e-06
251;1.00000119209289551e+00;1.19209289550781250e-06
277;1.00000083446502686e+00;8.34465026855468750e-07
305;1.00000083446502686e+00;8.34465026855468750e-07
336;1.00000154972076416e+00;1.54972076416015625e-06
370;1.00000476837158203e+00;4.76837158203125000e-06
408;9.99995410442352295e-01;4.58955764770507812e-06
449;1.00000774860382080e+00;7.74860382080078125e-06
494;1.00000119209289551e+00;1.19209289550781250e-06
544;9.99993324279785156e-01;6.67572021484375000e-06
599;1.00000798702239990e+00;7.98702239990234375e-06
659;9.99994874000549316e-01;5.12599945068359375e-06
725;1.00000762939453125e+00;7.62939453125000000e-06
798;9.99995231628417969e-01;4.76837158203125000e-06
878;1.00000560283660889e+00;5.60283660888671875e-06
966;9.99995410442352295e-01;4.58955764770507812e-06
1063;1.00000667572021484e+00;6.67572021484375000e-06
1170;9.99997079372406006e-01;2.92062759399414062e-06
1288;1.00000655651092529e+00;6.55651092529296875e-06
1417;9.99986112117767334e-01;1.38878822326660156e-05
1559;9.99983370304107666e-01;1.66296958923339844e-05
1715;9.99991893768310547e-01;8.10623168945312500e-06
1887;1.00002074241638184e+00;2.07424163818359375e-05
2076;9.99996721744537354e-01;3.27825546264648438e-06
2284;9.99991297721862793e-01;8.70227813720703125e-06
2513;1.00001513957977295e+00;1.51395797729492188e-05
2765;9.99988675117492676e-01;1.13248825073242188e-05
3042;9.99996840953826904e-01;3.15904617309570312e-06
3347;1.00002992153167725e+00;2.99215316772460938e-05
3682;1.00001394748687744e+00;1.39474868774414062e-05
4051;1.00001752376556396e+00;1.75237655639648438e-05
4457;1.00002300739288330e+00;2.30073928833007812e-05
4903;1.00004482269287109e+00;4.48226928710937500e-05
5394;1.00003671646118164e+00;3.67164611816406250e-05
5934;9.99960362911224365e-01;3.96370887756347656e-05
6528;9.99939262866973877e-01;6.07371330261230469e-05
7181;1.00009262561798096e+00;9.26256179809570312e-05
7900;1.00009250640869141e+00;9.25064086914062500e-05
8691;9.99934017658233643e-01;6.59823417663574219e-05
9561;9.99953091144561768e-01;4.69088554382324219e-05
10518;1.00002586841583252e+00;2.58684158325195312e-05
11570;1.00008666515350342e+00;8.66651535034179688e-05
12727;1.00000262260437012e+00;2.62260437011718750e-06
14000;9.99948918819427490e-01;5.10811805725097656e-05
15400;9.99965071678161621e-01;3.49283218383789062e-05
16941;1.00006270408630371e+00;6.27040863037109375e-05
18636;9.99787449836730957e-01;2.12550163269042969e-04
20500;1.00003468990325928e+00;3.46899032592773438e-05
22551;9.99965488910675049e-01;3.45110893249511719e-05
24807;9.99870121479034424e-01;1.29878520965576172e-04
27288;1.00020182132720947e+00;2.01821327209472656e-04
30017;1.00043034553527832e+00;4.30345535278320312e-04
33019;9.99614775180816650e-01;3.85224819183349609e-04
36321;1.00010085105895996e+00;1.00851058959960938e-04
39954;1.00013935565948486e+00;1.39355659484863281e-04
43950;1.00018990039825439e+00;1.89900398254394531e-04
48345;9.99731361865997314e-01;2.68638134002685547e-04
53180;1.00010502338409424e+00;1.05023384094238281e-04
58498;9.99657094478607178e-01;3.42905521392822266e-04
64348;1.00011920928955078e+00;1.19209289550781250e-04
70783;9.99550104141235352e-01;4.49895858764648438e-04
77862;9.99896764755249023e-01;1.03235244750976562e-04
85649;1.00055873394012451e+00;5.58733940124511719e-04
94214;1.00074577331542969e+00;7.45773315429687500e-04
